…
Artinya output berikut ini menampilkan Anggaran dari setiap provinsi terbaru:

```r
laporan %>% 
  filter(
    jenis == "Anggaran"
  ) %>% 
  arrange(daerah, desc(periode)) %>% 
  group_by(provinsi) %>% 
  slice(1)
```

```
#> # A tibble: 34 x 25
#> # Groups:   provinsi [34]
#>    daerah provinsi jenis periode pendapatan_daer… pendapatan_asli…
#>    <fct>  <fct>    <fct> <fct>              <dbl>            <dbl>
#>  1 Kab A… Aceh     Angg… 2018-0…    1251178000000     164141000000
#>  2 Kab B… Bali     Angg… 2018-0…    6567484000000    5700511000000
#>  3 Kab B… Bangka … Angg… 2018-0…    1045407000000     140835000000
#>  4 Kab L… Banten   Angg… 2018-0…    2414034000000     299733000000
#>  5 Kab B… Bengkulu Angg… 2018-0…     900262000000      58720000000
#>  6 Kab B… DI Yogy… Angg… 2018-0…    2056183000000     420143000000
#>  7 Prov … DKI Jak… Angg… 2018-0…   66029983000000   44570508000000
#>  8 Kab B… Goronta… Angg… 2018-0…     828164000000      46238000000
#>  9 Kab B… Jambi    Angg… 2018-0…    1246198000000     112000000000
#> 10 Kab B… Jawa Ba… Angg… 2018-0…    5064214000000     813568000000
#> # … with 24 more rows, and 19 more variables: hasil_pajak_daerah <dbl>,
#> #   hasil_retribusi_daerah <dbl>,
#> #   hasil_pengelolaan_kekayaan_daerah_yang_dipisahkan <dbl>,
#> #   lain_lain_pendapatan_asli_daerah_yang_sah <dbl>, dana_perimbangan <dbl>,
#> #   dana_bagi_hasil_pajak_bagi_hasil_bukan_pajak <dbl>,
#> #   dana_alokasi_umum <dbl>, dana_alokasi_khusus <dbl>,
#> #   lain_lain_pendapatan_daerah_yang_sah <dbl>, pendapatan_hibah <dbl>,
#> #   dana_darurat <dbl>,
#> #   dana_bagi_hasil_pajak_dari_provinsi_dan_pemerintah_daerah_lainnya <dbl>,
…
